/* XPM */
static char * bottom_right_active_xpm[] = {
"10 10 3 1",
"       c None",
"#      c #C0C0C0 s active_color_2",
"@      c #C0C0FF s active_color_2",
"@@@@@@@@@@",
"@@@@@@@@@@",
"@@@@@@@@@@",
"@@@@@@@@@@",
"@@@@@@@@@@",
"@@@@@@@@@@",
"@@@@@@@@@@",
"@@@@@@@@@@",
"@@@@@@@@@@",
"@@@@@@@@@ "};
